{
  "textures": {
    "particle": "#texture"
  },
  "elements": [
    {
      "name": "Right-hand post",
      "from": [13, 0, 6.5],
      "to": [16, 16, 9.5],
      "faces": {
        "north": { "uv": [6, 7, 3, 16], "texture": "#texture" },
        "east": {
          "uv": [3, 7, 6, 16],
          "texture": "#texture",
          "cullface": "east"
        },
        "south": { "uv": [3, 7, 6, 16], "texture": "#texture" },
        "west": { "uv": [3, 7, 6, 16], "texture": "#texture" },
        "up": { "uv": [3, 4, 6, 7], "texture": "#texture" },
        "down": { "uv": [3, 4, 6, 7], "texture": "#texture" }
      }
    },
    {
      "name": "Upper horizontal bar of right-hand gate door",
      "from": [10, 10, 7],
      "to": [14, 14, 9],
      "faces": {
        "north": { "uv": [10, 0, 14, 4], "texture": "#texture" },
        "south": { "uv": [2, 0, 6, 4], "texture": "#texture" },
        "up": { "uv": [2, 1, 6, 3], "texture": "#texture" },
        "down": { "uv": [2, 1, 6, 3], "texture": "#texture" }
      }
    },
    {
      "name": "Lower horizontal bar of right-hand gate door",
      "from": [10, 2, 7],
      "to": [14, 6, 9],
      "faces": {
        "north": { "uv": [10, 0, 14, 4], "texture": "#texture" },
        "south": { "uv": [2, 0, 6, 4], "texture": "#texture" },
        "up": { "uv": [2, 1, 6, 3], "texture": "#texture" },
        "down": { "uv": [2, 1, 6, 3], "texture": "#texture" }
      }
    },
    {
      "name": "Inner vertical post of right-hand gate door",
      "from": [8, 1, 7],
      "to": [10, 15, 9],
      "faces": {
        "north": { "uv": [12, 6, 10, 16], "texture": "#texture" },
        "east": { "uv": [10, 6, 12, 16], "texture": "#texture" },
        "south": { "uv": [10, 6, 12, 16], "texture": "#texture" },
        "west": { "uv": [7, 1, 9, 10], "texture": "#texture" },
        "up": { "uv": [10, 4, 12, 6], "texture": "#texture" },
        "down": { "uv": [10, 4, 12, 6], "texture": "#texture" }
      }
    },
    {
      "name": "Left-hand post",
      "from": [0, 0, 6.5],
      "to": [3, 16, 9.5],
      "faces": {
        "north": { "uv": [6, 7, 3, 16], "texture": "#texture" },
        "east": { "uv": [3, 7, 6, 16], "texture": "#texture" },
        "south": { "uv": [3, 7, 6, 16], "texture": "#texture" },
        "west": {
          "uv": [3, 7, 6, 16],
          "texture": "#texture",
          "cullface": "west"
        },
        "up": { "uv": [3, 4, 6, 7], "texture": "#texture" },
        "down": { "uv": [3, 4, 6, 7], "texture": "#texture" }
      }
    },
    {
      "name": "Upper horizontal bar of left-hand gate door",
      "from": [2, 10, 7],
      "to": [6, 14, 9],
      "faces": {
        "north": { "uv": [2, 0, 6, 4], "texture": "#texture" },
        "south": { "uv": [10, 0, 14, 4], "texture": "#texture" },
        "up": { "uv": [10, 1, 14, 3], "texture": "#texture" },
        "down": { "uv": [10, 1, 14, 3], "texture": "#texture" }
      }
    },
    {
      "name": "Inner vertical post of left-hand gate door",
      "from": [6, 1, 7],
      "to": [8, 15, 9],
      "faces": {
        "north": { "uv": [12, 6, 10, 16], "texture": "#texture" },
        "east": { "uv": [7, 1, 9, 10], "texture": "#texture" },
        "south": { "uv": [10, 6, 12, 16], "texture": "#texture" },
        "west": { "uv": [10, 6, 12, 16], "texture": "#texture" },
        "up": { "uv": [10, 4, 12, 6], "texture": "#texture" },
        "down": { "uv": [10, 4, 12, 6], "texture": "#texture" }
      }
    },
    {
      "name": "Lower horizontal bar of left-hand gate door",
      "from": [2, 2, 7],
      "to": [6, 6, 9],
      "faces": {
        "north": { "uv": [2, 0, 6, 4], "texture": "#texture" },
        "south": { "uv": [10, 0, 14, 4], "texture": "#texture" },
        "up": { "uv": [10, 1, 14, 3], "texture": "#texture" },
        "down": { "uv": [10, 1, 14, 3], "texture": "#texture" }
      }
    }
  ],
  "display": {
    "gui": {
      "rotation": [30, 45, 0],
      "translation": [0, 0, 0],
      "scale": [0.625, 0.625, 0.625]
    },
    "head": {
      "translation": [0, -3, -6]
    },
    "firstperson_righthand": {
      "rotation": [0, 330, 0],
      "scale": [0.5, 0.5, 0.5]
    },
    "thirdperson_righthand": {
      "rotation": [0, 0, 0],
      "scale": [0.5, 0.5, 0.5]
    }
  }
}
