{
	"textures": {
    "particle": "#top"
	},
	"elements": [
		{
			"from": [3, 0, 0],
			"to": [13, 3, 3],
			"faces": {
				"north": {"uv": [13, 13, 3, 16], "texture": "#top"},
				"east": {"uv": [13, 13, 16, 16], "texture": "#top"},
				"south": {"uv": [3, 0, 13, 3], "texture": "#top"},
				"west": {"uv": [0, 13, 3, 16], "texture": "#top"},
				"up": {"uv": [3, 0, 13, 3], "texture": "#top"},
				"down": {"uv": [3, 13, 13, 16], "texture": "#top"}
			}
		},
		{
			"from": [13, 0, 0],
			"to": [16, 3, 16],
			"faces": {
				"north": {"uv": [3, 13, 0, 16], "texture": "#top"},
				"east": {"uv": [3, 13, 13, 16], "texture": "#top"},
				"south": {"uv": [0, 13, 3, 16], "texture": "#top"},
				"west": {"uv": [3, 13, 13, 16], "texture": "#top"},
				"up": {"uv": [13, 0, 16, 16], "texture": "#top"},
				"down": {"uv": [13, 3, 16, 13], "texture": "#top"}
			}
		},
		{
			"from": [3, 0, 13],
			"to": [13, 3, 16],
			"faces": {
				"north": {"uv": [3, 13, 13, 16], "texture": "#top"},
				"east": {"uv": [0, 13, 3, 16], "texture": "#top"},
				"south": {"uv": [3, 13, 13, 16], "texture": "#top"},
				"west": {"uv": [13, 13, 16, 16], "texture": "#top"},
				"up": {"uv": [3, 13, 13, 16], "texture": "#top"},
				"down": {"uv": [3, 0, 13, 3], "texture": "#top"}
			}
		},
		{
			"from": [0, 0, 0],
			"to": [3, 3, 16],
			"faces": {
				"north": {"uv": [3, 13, 0, 16], "texture": "#top"},
				"east": {"uv": [3, 13, 13, 16], "texture": "#top"},
				"south": {"uv": [0, 13, 3, 16], "texture": "#top"},
				"west": {"uv": [3, 13, 13, 16], "texture": "#top"},
				"up": {"uv": [0, 0, 3, 16], "texture": "#top"},
				"down": {"uv": [0, 3, 3, 13], "texture": "#top"}
			}
		},
		{
			"from": [3, 1, 3],
			"to": [13, 2, 13],
			"faces": {
				"north": {"uv": [3, 12, 13, 12.5], "texture": "#top"},
				"east": {"uv": [3, 12, 13, 12.5], "texture": "#top"},
				"south": {"uv": [3, 12, 13, 12.5], "texture": "#top"},
				"west": {"uv": [3, 12, 13, 12.5], "texture": "#top"},
				"up": {"uv": [3, 3, 13, 13], "texture": "#top"},
				"down": {"uv": [3, 3, 13, 13], "texture": "#top"}
			}
		}
	]
}