{
  "variants": {
    "facing=north,half=bottom,open=false": { "model": "block/bamboo_trapdoor" },
    "facing=south,half=bottom,open=false": { "model": "block/bamboo_trapdoor" },
    "facing=east,half=bottom,open=false": { "model": "block/bamboo_trapdoor" },
    "facing=west,half=bottom,open=false": { "model": "block/bamboo_trapdoor" },
    "facing=north,half=top,open=false": { "model": "block/bamboo_trapdoor", "x": 180 },
    "facing=south,half=top,open=false": { "model": "block/bamboo_trapdoor", "x": 180 },
    "facing=east,half=top,open=false": { "model": "block/bamboo_trapdoor", "x": 180 },
    "facing=west,half=top,open=false": { "model": "block/bamboo_trapdoor", "x": 180 },
    "facing=north,half=bottom,open=true": { "model": "block/bamboo_trapdoor", "x": 90 },
    "facing=south,half=bottom,open=true": { "model": "block/bamboo_trapdoor", "x": 90, "y": 180 },
    "facing=east,half=bottom,open=true": { "model": "block/bamboo_trapdoor", "x": 90, "y": 90 },
    "facing=west,half=bottom,open=true": { "model": "block/bamboo_trapdoor", "x": 90, "y": 270 },
    "facing=north,half=top,open=true": { "model": "block/bamboo_trapdoor", "x": 90 },
    "facing=south,half=top,open=true": { "model": "block/bamboo_trapdoor", "x": 90, "y": 180 },
    "facing=east,half=top,open=true": { "model": "block/bamboo_trapdoor", "x": 90, "y": 90 },
    "facing=west,half=top,open=true": { "model": "block/bamboo_trapdoor", "x": 90, "y": 270 }
  }
}